info face="TinyUnicode" size=32 bold=0 italic=0 charset="" unicode=0 stretchH=100 smooth=1 aa=1 padding=0,0,4,0 spacing=0,0
common lineHeight=33 base=23 scaleW=512 scaleH=128 pages=1 packed=0
page id=0 file="tiny.png"
chars count=189
char id=32   x=0     y=0     width=0     height=0     xoffset=0     yoffset=23    xadvance=10     page=0  chnl=0 
char id=127   x=0     y=0     width=10     height=27     xoffset=1     yoffset=1    xadvance=12     page=0  chnl=0 
char id=188   x=10     y=0     width=16     height=22     xoffset=0     yoffset=10    xadvance=16     page=0  chnl=0 
char id=255   x=26     y=0     width=10     height=20     xoffset=0     yoffset=12    xadvance=10     page=0  chnl=0 
char id=253   x=36     y=0     width=10     height=20     xoffset=0     yoffset=12    xadvance=10     page=0  chnl=0 
char id=216   x=46     y=0     width=12     height=20     xoffset=0     yoffset=10    xadvance=12     page=0  chnl=0 
char id=199   x=58     y=0     width=8     height=20     xoffset=0     yoffset=12    xadvance=8     page=0  chnl=0 
char id=190   x=66     y=0     width=18     height=20     xoffset=0     yoffset=10    xadvance=18     page=0  chnl=0 
char id=189   x=84     y=0     width=18     height=20     xoffset=0     yoffset=10    xadvance=18     page=0  chnl=0 
char id=184   x=102     y=0     width=18     height=20     xoffset=0     yoffset=10    xadvance=18     page=0  chnl=0 
char id=170   x=120     y=0     width=18     height=20     xoffset=0     yoffset=10    xadvance=18     page=0  chnl=0 
char id=167   x=138     y=0     width=10     height=20     xoffset=0     yoffset=12    xadvance=10     page=0  chnl=0 
char id=64   x=148     y=0     width=16     height=20     xoffset=0     yoffset=10    xadvance=16     page=0  chnl=0 
char id=125   x=164     y=0     width=8     height=20     xoffset=0     yoffset=10    xadvance=8     page=0  chnl=0 
char id=123   x=172     y=0     width=8     height=20     xoffset=0     yoffset=10    xadvance=8     page=0  chnl=0 
char id=41   x=180     y=0     width=6     height=20     xoffset=0     yoffset=10    xadvance=6     page=0  chnl=0 
char id=40   x=186     y=0     width=6     height=20     xoffset=0     yoffset=10    xadvance=6     page=0  chnl=0 
char id=106   x=192     y=0     width=6     height=20     xoffset=0     yoffset=12    xadvance=6     page=0  chnl=0 
char id=254   x=198     y=0     width=22     height=18     xoffset=0     yoffset=12    xadvance=22     page=0  chnl=0 
char id=252   x=220     y=0     width=10     height=18     xoffset=0     yoffset=10    xadvance=10     page=0  chnl=0 
char id=251   x=230     y=0     width=10     height=18     xoffset=0     yoffset=10    xadvance=10     page=0  chnl=0 
char id=250   x=240     y=0     width=10     height=18     xoffset=0     yoffset=10    xadvance=10     page=0  chnl=0 
char id=249   x=250     y=0     width=10     height=18     xoffset=0     yoffset=10    xadvance=10     page=0  chnl=0 
char id=248   x=260     y=0     width=10     height=18     xoffset=0     yoffset=12    xadvance=10     page=0  chnl=0 
char id=246   x=270     y=0     width=10     height=18     xoffset=0     yoffset=10    xadvance=10     page=0  chnl=0 
char id=245   x=280     y=0     width=10     height=18     xoffset=0     yoffset=10    xadvance=10     page=0  chnl=0 
char id=244   x=290     y=0     width=10     height=18     xoffset=0     yoffset=10    xadvance=10     page=0  chnl=0 
char id=243   x=300     y=0     width=10     height=18     xoffset=0     yoffset=10    xadvance=10     page=0  chnl=0 
char id=242   x=310     y=0     width=10     height=18     xoffset=0     yoffset=10    xadvance=10     page=0  chnl=0 
char id=241   x=320     y=0     width=10     height=18     xoffset=0     yoffset=10    xadvance=10     page=0  chnl=0 
char id=240   x=330     y=0     width=12     height=18     xoffset=0     yoffset=10    xadvance=12     page=0  chnl=0 
char id=238   x=342     y=0     width=8     height=18     xoffset=0     yoffset=10    xadvance=8     page=0  chnl=0 
char id=237   x=350     y=0     width=6     height=18     xoffset=0     yoffset=10    xadvance=6     page=0  chnl=0 
char id=236   x=356     y=0     width=6     height=18     xoffset=0     yoffset=10    xadvance=6     page=0  chnl=0 
char id=235   x=362     y=0     width=10     height=18     xoffset=0     yoffset=10    xadvance=10     page=0  chnl=0 
char id=234   x=372     y=0     width=10     height=18     xoffset=0     yoffset=10    xadvance=10     page=0  chnl=0 
char id=233   x=382     y=0     width=10     height=18     xoffset=0     yoffset=10    xadvance=10     page=0  chnl=0 
char id=232   x=392     y=0     width=10     height=18     xoffset=0     yoffset=10    xadvance=10     page=0  chnl=0 
char id=231   x=402     y=0     width=8     height=18     xoffset=0     yoffset=14    xadvance=8     page=0  chnl=0 
char id=229   x=410     y=0     width=10     height=18     xoffset=0     yoffset=10    xadvance=10     page=0  chnl=0 
char id=228   x=420     y=0     width=10     height=18     xoffset=0     yoffset=10    xadvance=10     page=0  chnl=0 
char id=227   x=430     y=0     width=10     height=18     xoffset=0     yoffset=10    xadvance=10     page=0  chnl=0 
char id=226   x=440     y=0     width=10     height=18     xoffset=0     yoffset=10    xadvance=10     page=0  chnl=0 
char id=225   x=450     y=0     width=10     height=18     xoffset=0     yoffset=10    xadvance=10     page=0  chnl=0 
char id=224   x=460     y=0     width=10     height=18     xoffset=0     yoffset=10    xadvance=10     page=0  chnl=0 
char id=223   x=470     y=0     width=8     height=18     xoffset=0     yoffset=12    xadvance=8     page=0  chnl=0 
char id=221   x=478     y=0     width=10     height=18     xoffset=0     yoffset=10    xadvance=10     page=0  chnl=0 
char id=220   x=488     y=0     width=10     height=18     xoffset=0     yoffset=10    xadvance=10     page=0  chnl=0 
char id=219   x=498     y=0     width=10     height=18     xoffset=0     yoffset=10    xadvance=10     page=0  chnl=0 
char id=218   x=0     y=27     width=10     height=18     xoffset=0     yoffset=10    xadvance=10     page=0  chnl=0 
char id=217   x=10     y=27     width=10     height=18     xoffset=0     yoffset=10    xadvance=10     page=0  chnl=0 
char id=214   x=20     y=27     width=10     height=18     xoffset=0     yoffset=10    xadvance=10     page=0  chnl=0 
char id=213   x=30     y=27     width=10     height=18     xoffset=0     yoffset=10    xadvance=10     page=0  chnl=0 
char id=212   x=40     y=27     width=10     height=18     xoffset=0     yoffset=10    xadvance=10     page=0  chnl=0 
char id=211   x=50     y=27     width=10     height=18     xoffset=0     yoffset=10    xadvance=10     page=0  chnl=0 
char id=210   x=60     y=27     width=10     height=18     xoffset=0     yoffset=10    xadvance=10     page=0  chnl=0 
char id=209   x=70     y=27     width=10     height=18     xoffset=0     yoffset=10    xadvance=10     page=0  chnl=0 
char id=207   x=80     y=27     width=8     height=18     xoffset=0     yoffset=10    xadvance=8     page=0  chnl=0 
char id=206   x=88     y=27     width=8     height=18     xoffset=0     yoffset=10    xadvance=8     page=0  chnl=0 
char id=205   x=96     y=27     width=8     height=18     xoffset=0     yoffset=10    xadvance=8     page=0  chnl=0 
char id=204   x=104     y=27     width=8     height=18     xoffset=0     yoffset=10    xadvance=8     page=0  chnl=0 
char id=203   x=112     y=27     width=8     height=18     xoffset=0     yoffset=10    xadvance=8     page=0  chnl=0 
char id=201   x=120     y=27     width=8     height=18     xoffset=0     yoffset=10    xadvance=8     page=0  chnl=0 
char id=200   x=128     y=27     width=8     height=18     xoffset=0     yoffset=10    xadvance=8     page=0  chnl=0 
char id=197   x=136     y=27     width=10     height=18     xoffset=0     yoffset=10    xadvance=10     page=0  chnl=0 
char id=196   x=146     y=27     width=10     height=18     xoffset=0     yoffset=10    xadvance=10     page=0  chnl=0 
char id=195   x=156     y=27     width=10     height=18     xoffset=0     yoffset=10    xadvance=10     page=0  chnl=0 
char id=194   x=166     y=27     width=10     height=18     xoffset=0     yoffset=10    xadvance=10     page=0  chnl=0 
char id=193   x=176     y=27     width=10     height=18     xoffset=0     yoffset=10    xadvance=10     page=0  chnl=0 
char id=192   x=186     y=27     width=10     height=18     xoffset=0     yoffset=10    xadvance=10     page=0  chnl=0 
char id=181   x=196     y=27     width=10     height=18     xoffset=0     yoffset=14    xadvance=10     page=0  chnl=0 
char id=166   x=206     y=27     width=4     height=18     xoffset=0     yoffset=12    xadvance=4     page=0  chnl=0 
char id=162   x=210     y=27     width=10     height=18     xoffset=0     yoffset=12    xadvance=10     page=0  chnl=0 
char id=36   x=220     y=27     width=10     height=18     xoffset=0     yoffset=12    xadvance=10     page=0  chnl=0 
char id=93   x=230     y=27     width=6     height=18     xoffset=0     yoffset=12    xadvance=6     page=0  chnl=0 
char id=91   x=236     y=27     width=6     height=18     xoffset=0     yoffset=12    xadvance=6     page=0  chnl=0 
char id=121   x=242     y=27     width=10     height=18     xoffset=0     yoffset=14    xadvance=10     page=0  chnl=0 
char id=113   x=252     y=27     width=10     height=18     xoffset=0     yoffset=14    xadvance=10     page=0  chnl=0 
char id=112   x=262     y=27     width=10     height=18     xoffset=0     yoffset=14    xadvance=10     page=0  chnl=0 
char id=103   x=272     y=27     width=10     height=18     xoffset=0     yoffset=14    xadvance=10     page=0  chnl=0 
char id=81   x=282     y=27     width=10     height=18     xoffset=0     yoffset=12    xadvance=10     page=0  chnl=0 
char id=247   x=292     y=27     width=12     height=16     xoffset=0     yoffset=12    xadvance=12     page=0  chnl=0 
char id=239   x=304     y=27     width=8     height=16     xoffset=0     yoffset=12    xadvance=8     page=0  chnl=0 
char id=222   x=312     y=27     width=8     height=16     xoffset=0     yoffset=12    xadvance=8     page=0  chnl=0 
char id=208   x=320     y=27     width=22     height=16     xoffset=0     yoffset=14    xadvance=22     page=0  chnl=0 
char id=202   x=342     y=27     width=8     height=16     xoffset=0     yoffset=12    xadvance=8     page=0  chnl=0 
char id=198   x=350     y=27     width=14     height=16     xoffset=0     yoffset=12    xadvance=14     page=0  chnl=0 
char id=191   x=364     y=27     width=10     height=16     xoffset=0     yoffset=14    xadvance=10     page=0  chnl=0 
char id=182   x=374     y=27     width=12     height=16     xoffset=0     yoffset=12    xadvance=12     page=0  chnl=0 
char id=177   x=386     y=27     width=8     height=16     xoffset=0     yoffset=12    xadvance=8     page=0  chnl=0 
char id=165   x=394     y=27     width=8     height=16     xoffset=0     yoffset=12    xadvance=8     page=0  chnl=0 
char id=164   x=402     y=27     width=12     height=16     xoffset=0     yoffset=12    xadvance=12     page=0  chnl=0 
char id=163   x=414     y=27     width=10     height=16     xoffset=0     yoffset=12    xadvance=10     page=0  chnl=0 
char id=161   x=424     y=27     width=4     height=16     xoffset=0     yoffset=14    xadvance=4     page=0  chnl=0 
char id=38   x=428     y=27     width=12     height=16     xoffset=0     yoffset=12    xadvance=12     page=0  chnl=0 
char id=35   x=440     y=27     width=12     height=16     xoffset=0     yoffset=12    xadvance=12     page=0  chnl=0 
char id=37   x=452     y=27     width=8     height=16     xoffset=0     yoffset=12    xadvance=8     page=0  chnl=0 
char id=92   x=460     y=27     width=8     height=16     xoffset=0     yoffset=12    xadvance=8     page=0  chnl=0 
char id=47   x=468     y=27     width=8     height=16     xoffset=0     yoffset=12    xadvance=8     page=0  chnl=0 
char id=124   x=476     y=27     width=4     height=16     xoffset=0     yoffset=12    xadvance=4     page=0  chnl=0 
char id=63   x=480     y=27     width=10     height=16     xoffset=0     yoffset=12    xadvance=10     page=0  chnl=0 
char id=33   x=490     y=27     width=4     height=16     xoffset=0     yoffset=12    xadvance=4     page=0  chnl=0 
char id=48   x=494     y=27     width=10     height=16     xoffset=0     yoffset=12    xadvance=10     page=0  chnl=0 
char id=57   x=0     y=45     width=10     height=16     xoffset=0     yoffset=12    xadvance=10     page=0  chnl=0 
char id=56   x=10     y=45     width=10     height=16     xoffset=0     yoffset=12    xadvance=10     page=0  chnl=0 
char id=55   x=20     y=45     width=10     height=16     xoffset=0     yoffset=12    xadvance=10     page=0  chnl=0 
char id=54   x=30     y=45     width=10     height=16     xoffset=0     yoffset=12    xadvance=10     page=0  chnl=0 
char id=53   x=40     y=45     width=10     height=16     xoffset=0     yoffset=12    xadvance=10     page=0  chnl=0 
char id=52   x=50     y=45     width=10     height=16     xoffset=0     yoffset=12    xadvance=10     page=0  chnl=0 
char id=51   x=60     y=45     width=10     height=16     xoffset=0     yoffset=12    xadvance=10     page=0  chnl=0 
char id=50   x=70     y=45     width=10     height=16     xoffset=0     yoffset=12    xadvance=10     page=0  chnl=0 
char id=49   x=80     y=45     width=6     height=16     xoffset=0     yoffset=12    xadvance=6     page=0  chnl=0 
char id=116   x=86     y=45     width=8     height=16     xoffset=0     yoffset=12    xadvance=8     page=0  chnl=0 
char id=108   x=94     y=45     width=4     height=16     xoffset=0     yoffset=12    xadvance=4     page=0  chnl=0 
char id=107   x=98     y=45     width=10     height=16     xoffset=0     yoffset=12    xadvance=10     page=0  chnl=0 
char id=105   x=108     y=45     width=4     height=16     xoffset=0     yoffset=12    xadvance=4     page=0  chnl=0 
char id=104   x=112     y=45     width=10     height=16     xoffset=0     yoffset=12    xadvance=10     page=0  chnl=0 
char id=102   x=122     y=45     width=8     height=16     xoffset=0     yoffset=12    xadvance=8     page=0  chnl=0 
char id=100   x=130     y=45     width=10     height=16     xoffset=0     yoffset=12    xadvance=10     page=0  chnl=0 
char id=98   x=140     y=45     width=10     height=16     xoffset=0     yoffset=12    xadvance=10     page=0  chnl=0 
char id=90   x=150     y=45     width=8     height=16     xoffset=0     yoffset=12    xadvance=8     page=0  chnl=0 
char id=89   x=158     y=45     width=10     height=16     xoffset=0     yoffset=12    xadvance=10     page=0  chnl=0 
char id=88   x=168     y=45     width=10     height=16     xoffset=0     yoffset=12    xadvance=10     page=0  chnl=0 
char id=87   x=178     y=45     width=12     height=16     xoffset=0     yoffset=12    xadvance=12     page=0  chnl=0 
char id=86   x=190     y=45     width=10     height=16     xoffset=0     yoffset=12    xadvance=10     page=0  chnl=0 
char id=85   x=200     y=45     width=10     height=16     xoffset=0     yoffset=12    xadvance=10     page=0  chnl=0 
char id=84   x=210     y=45     width=8     height=16     xoffset=0     yoffset=12    xadvance=8     page=0  chnl=0 
char id=83   x=218     y=45     width=10     height=16     xoffset=0     yoffset=12    xadvance=10     page=0  chnl=0 
char id=82   x=228     y=45     width=10     height=16     xoffset=0     yoffset=12    xadvance=10     page=0  chnl=0 
char id=80   x=238     y=45     width=10     height=16     xoffset=0     yoffset=12    xadvance=10     page=0  chnl=0 
char id=79   x=248     y=45     width=10     height=16     xoffset=0     yoffset=12    xadvance=10     page=0  chnl=0 
char id=78   x=258     y=45     width=10     height=16     xoffset=0     yoffset=12    xadvance=10     page=0  chnl=0 
char id=77   x=268     y=45     width=12     height=16     xoffset=0     yoffset=12    xadvance=12     page=0  chnl=0 
char id=76   x=280     y=45     width=8     height=16     xoffset=0     yoffset=12    xadvance=8     page=0  chnl=0 
char id=75   x=288     y=45     width=10     height=16     xoffset=0     yoffset=12    xadvance=10     page=0  chnl=0 
char id=74   x=298     y=45     width=10     height=16     xoffset=0     yoffset=12    xadvance=10     page=0  chnl=0 
char id=73   x=308     y=45     width=8     height=16     xoffset=0     yoffset=12    xadvance=8     page=0  chnl=0 
char id=72   x=316     y=45     width=10     height=16     xoffset=0     yoffset=12    xadvance=10     page=0  chnl=0 
char id=71   x=326     y=45     width=10     height=16     xoffset=0     yoffset=12    xadvance=10     page=0  chnl=0 
char id=70   x=336     y=45     width=8     height=16     xoffset=0     yoffset=12    xadvance=8     page=0  chnl=0 
char id=69   x=344     y=45     width=8     height=16     xoffset=0     yoffset=12    xadvance=8     page=0  chnl=0 
char id=68   x=352     y=45     width=10     height=16     xoffset=0     yoffset=12    xadvance=10     page=0  chnl=0 
char id=67   x=362     y=45     width=8     height=16     xoffset=0     yoffset=12    xadvance=8     page=0  chnl=0 
char id=66   x=370     y=45     width=10     height=16     xoffset=0     yoffset=12    xadvance=10     page=0  chnl=0 
char id=65   x=380     y=45     width=10     height=16     xoffset=0     yoffset=12    xadvance=10     page=0  chnl=0 
char id=230   x=390     y=45     width=16     height=14     xoffset=0     yoffset=14    xadvance=16     page=0  chnl=0 
char id=187   x=406     y=45     width=10     height=14     xoffset=0     yoffset=14    xadvance=10     page=0  chnl=0 
char id=171   x=416     y=45     width=10     height=14     xoffset=0     yoffset=14    xadvance=10     page=0  chnl=0 
char id=59   x=426     y=45     width=6     height=14     xoffset=0     yoffset=16    xadvance=6     page=0  chnl=0 
char id=122   x=432     y=45     width=10     height=14     xoffset=0     yoffset=14    xadvance=10     page=0  chnl=0 
char id=120   x=442     y=45     width=8     height=14     xoffset=0     yoffset=14    xadvance=8     page=0  chnl=0 
char id=119   x=450     y=45     width=12     height=14     xoffset=0     yoffset=14    xadvance=12     page=0  chnl=0 
char id=118   x=462     y=45     width=10     height=14     xoffset=0     yoffset=14    xadvance=10     page=0  chnl=0 
char id=117   x=472     y=45     width=10     height=14     xoffset=0     yoffset=14    xadvance=10     page=0  chnl=0 
char id=115   x=482     y=45     width=10     height=14     xoffset=0     yoffset=14    xadvance=10     page=0  chnl=0 
char id=114   x=492     y=45     width=8     height=14     xoffset=0     yoffset=14    xadvance=8     page=0  chnl=0 
char id=111   x=500     y=45     width=10     height=14     xoffset=0     yoffset=14    xadvance=10     page=0  chnl=0 
char id=110   x=0     y=61     width=10     height=14     xoffset=0     yoffset=14    xadvance=10     page=0  chnl=0 
char id=109   x=10     y=61     width=12     height=14     xoffset=0     yoffset=14    xadvance=12     page=0  chnl=0 
char id=101   x=22     y=61     width=10     height=14     xoffset=0     yoffset=14    xadvance=10     page=0  chnl=0 
char id=99   x=32     y=61     width=8     height=14     xoffset=0     yoffset=14    xadvance=8     page=0  chnl=0 
char id=97   x=40     y=61     width=10     height=14     xoffset=0     yoffset=14    xadvance=10     page=0  chnl=0 
char id=215   x=50     y=61     width=8     height=12     xoffset=0     yoffset=14    xadvance=8     page=0  chnl=0 
char id=176   x=58     y=61     width=8     height=12     xoffset=0     yoffset=12    xadvance=8     page=0  chnl=0 
char id=42   x=66     y=61     width=8     height=12     xoffset=0     yoffset=10    xadvance=8     page=0  chnl=0 
char id=126   x=74     y=61     width=12     height=12     xoffset=0     yoffset=14    xadvance=12     page=0  chnl=0 
char id=61   x=86     y=61     width=10     height=12     xoffset=0     yoffset=14    xadvance=10     page=0  chnl=0 
char id=43   x=96     y=61     width=8     height=12     xoffset=0     yoffset=14    xadvance=8     page=0  chnl=0 
char id=62   x=104     y=61     width=6     height=12     xoffset=0     yoffset=14    xadvance=6     page=0  chnl=0 
char id=60   x=110     y=61     width=6     height=12     xoffset=0     yoffset=14    xadvance=6     page=0  chnl=0 
char id=58   x=116     y=61     width=4     height=12     xoffset=0     yoffset=16    xadvance=4     page=0  chnl=0 
char id=186   x=120     y=61     width=6     height=10     xoffset=0     yoffset=12    xadvance=6     page=0  chnl=0 
char id=185   x=126     y=61     width=6     height=10     xoffset=0     yoffset=12    xadvance=6     page=0  chnl=0 
char id=180   x=132     y=61     width=6     height=10     xoffset=0     yoffset=12    xadvance=6     page=0  chnl=0 
char id=179   x=138     y=61     width=6     height=10     xoffset=0     yoffset=12    xadvance=6     page=0  chnl=0 
char id=178   x=144     y=61     width=6     height=10     xoffset=0     yoffset=12    xadvance=6     page=0  chnl=0 
char id=174   x=150     y=61     width=6     height=10     xoffset=0     yoffset=12    xadvance=6     page=0  chnl=0 
char id=172   x=156     y=61     width=10     height=10     xoffset=0     yoffset=14    xadvance=10     page=0  chnl=0 
char id=169   x=166     y=61     width=6     height=10     xoffset=0     yoffset=12    xadvance=6     page=0  chnl=0 
char id=94   x=172     y=61     width=8     height=10     xoffset=0     yoffset=12    xadvance=8     page=0  chnl=0 
char id=44   x=180     y=61     width=6     height=10     xoffset=0     yoffset=20    xadvance=6     page=0  chnl=0 
char id=39   x=186     y=61     width=4     height=10     xoffset=0     yoffset=10    xadvance=4     page=0  chnl=0 
char id=96   x=190     y=61     width=6     height=10     xoffset=0     yoffset=12    xadvance=6     page=0  chnl=0 
char id=34   x=196     y=61     width=8     height=10     xoffset=0     yoffset=10    xadvance=8     page=0  chnl=0 
char id=183   x=204     y=61     width=4     height=8     xoffset=2     yoffset=16    xadvance=6     page=0  chnl=0 
char id=175   x=208     y=61     width=10     height=8     xoffset=0     yoffset=12    xadvance=10     page=0  chnl=0 
char id=168   x=218     y=61     width=8     height=8     xoffset=0     yoffset=12    xadvance=8     page=0  chnl=0 
char id=95   x=226     y=61     width=12     height=8     xoffset=0     yoffset=22    xadvance=12     page=0  chnl=0 
char id=45   x=238     y=61     width=8     height=8     xoffset=0     yoffset=16    xadvance=8     page=0  chnl=0 
char id=46   x=246     y=61     width=4     height=8     xoffset=0     yoffset=20    xadvance=4     page=0  chnl=0 
